{
  "id": "ironfang-invasion-maps-remake",
  "title": "Ironfang Invasion Maps Remake",
  "description": "<p>My collection of maps for Paizo Publishing's Pathfinder IRONFANG INVASION adventure path.</p>",
  "version": "3.0.1",
  "compatibility": {
	"minimum": "0.8.0",
	"verified": "11"
  },
  "authors": [
    {
    "name": "Narchy"
    }
    ],

  "packs": [
    {
      "name": "book-1-trail-of-the-hunted",
      "label": "Book 1 - Trail of the Hunted",
      "path": "/packs/book-1-trail-of-the-hunted.db",
      "type": "Scene"
    },
        {
      "name": "book-2-fangs-of-war",
      "label": "Book 2 - Fangs of War",
      "path": "/packs/book-2-fangs-of-war.db",
      "type": "Scene"
    },
        {
      "name": "book-3-assault-on-longshadow",
      "label": "Book 3 - Assault on Longshadow",
      "path": "/packs/book-3-assault-on-longshadow.db",
      "type": "Scene"
    }                   
  
  ],
  
  "url": "https://gitlab.com/narchy-maps/ironfang-invasion-maps-remake",
  "manifest": "https://gitlab.com/narchy-maps/ironfang-invasion-maps-remake/-/raw/main/module.json",
  "download": "https://gitlab.com/narchy-maps/ironfang-invasion-maps-remake/-/archive/main/ironfang-invasion-maps-remake.zip"
}
